{
  "_id": "column::contract_lines.unit_type_id",
  "type": "column",
  "table_id": "table::contract_lines",
  "alias": "f",
  "name": "unit_type_id",
  "data_type": "id",
  "associated_table_id": "table::unit_types"
}
