{
  "_id": "column::survey_associated.survey_answers",
  "type": "column",
  "data_type": "document_group",
  "table_id": "table::survey_associated",
  "alias": "e",
  "name": "survey_answers",
  "creation_date": "2016-03-03T17:00:33.437Z",
  "creation_user": "user::iaa",
  "associated_table_id": "table::survey_answers"
}