{
  "_id": "column::tax_identification_attachments.tax_identification_id",
  "type": "column",
  "table_id": "table::tax_identification_attachments",
  "alias": "a",
  "name": "tax_identification_id",
  "data_type": "id",
  "associated_table_id": "table::tax_identifications",
  "relation_type": "delete_cascade",
  "validation_type": ""
}