{
  "_id": "column::order_types.code",
  "type": "column",
  "table_id": "table::order_types",
  "alias": "b",
  "name": "code",
  "data_type": "string",
  "primary_key": 2,
  "export_set": "basic",
  "description":{
    "es": "Código del tipo de pedido",
    "en": ""
  }
}
