{
  "_id": "column::companies.default_tariff_type_article_id",
  "type": "column",
  "table_id": "table::companies",
  "alias": "d",
  "name": "default_tariff_type_article_id",
  "data_type": "id",
  "associated_table_id": "table::tariff_types",
  "mandatory": true,
  "export_set": "basic",
  "description":{
    "es": "Referencia a: Tipo de tarifa por defecto para los artículos",
    "en": "Code identifying a type of fee."
  }
}
