{
  "_id": "column::extended_descriptions.language_id",
  "type": "column",
  "table_id": "table::extended_descriptions",
  "alias": "c",
  "name": "language_id",
  "data_type": "id",
  "associated_table_id": "table::languages"
}
