{
  "_id": "column::technicians.user_id",
  "type": "column",
  "data_type": "id",
  "table_id": "table::technicians",
  "alias": "e",
  "name": "user_id",
  "creation_date": "2016-02-17T09:29:20.349Z",
  "creation_user": "user::rag",
  "associated_table_id": "table::users"
}