{
  "_id": "column::technician_geolocations.checkin_id",
  "type": "column",
  "data_type": "id",
  "table_id": "table::technician_geolocations",
  "alias": "d",
  "name": "checkin_id",
  "creation_date": "2016-03-07T08:55:41.949Z",
  "creation_user": "user::rag",
  "associated_table_id": "table::checkins"
}