{
  "_id": "column::order_lines.net_amount_company_currency",
  "type": "column",
  "table_id": "table::order_lines",
  "alias": "k",
  "name": "net_amount_company_currency",
  "data_type": "number",
  "default_format": "currency '[[a.a.a.b.c]]' '[[a.a.a.b.a]]'",
  "export_set": "basic",
  "description":{
    "es": "Importe neto de la línea (en la moneda de la empresa usuaria)",
    "en": ""
  }
}
