{
  "_id": "column::order_headers.outstanding_lines_amount_company_currency",
  "type": "column",
  "table_id": "table::order_headers",
  "alias": "p",
  "name": "outstanding_lines_amount_company_currency",
  "data_type": "number",
  "default_format": "currency '[[a.a.b.c]]' '[[a.a.b.a]]'",
  "export_set": "basic",
  "description":{
    "es": "Importe pendiente de las líneas (en la moneda de la empresa usuaria)",
    "en": ""
  }
}
