{
  "_id": "column::allowance_expenses.task_id",
  "type": "column",
  "table_id": "table::allowance_expenses",
  "alias": "a",
  "name": "task_id",
  "data_type": "id",
  "associated_table_id": "table::tasks"
}
