{
  "_id": "column::competing_product_type_customers.observation",
  "type": "column",
  "table_id": "table::competing_product_type_customers",
  "alias": "e",
  "name": "observation",
  "data_type": "string",
  "full_text_search": false,
  "validation_type": "textarea"
}
