{
  "_id": "column::order_lines.function_amount",
  "type": "column",
  "table_id": "table::order_lines",
  "alias": "t",
  "name": "function_amount",
  "data_type": "number",
  "default_format": "number '[[f.c]]'",
  "function": "arr=_.pairs(this._cachedFilters); result = null; for(var i = 0; i < arr.length; i++){ if((arr[i][1].column === 'm') && (arr[i][1].value === 'N')){ return this.get('q'); } } return this.get('j');"
}
