{
  "_id": "column::user_permissions.permission_level",
  "type": "column",
  "table_id": "table::user_permissions",
  "alias": "b",
  "name": "permission_level",
  "data_type": "string",
  "full_text_search": false
}
