{
  "_id": "column::customers.payment_address_geolocation",
  "type": "column",
  "data_type": "address",
  "table_id": "table::customers",
  "alias": "ad",
  "name": "payment_address_geolocation",
  "creation_date": "2016-02-15T12:20:39.355Z",
  "creation_user": "user::tjd"
}