{
  "_id": "column::minute_actions.creation_date",
  "type": "column",
  "data_type": "date",
  "table_id": "table::minute_actions",
  "alias": "h",
  "name": "creation_date",
  "creation_date": "2016-09-13T14:33:12.235Z",
  "creation_user": "user::rag"
}