{
  "_id": "column::companies.catalog_property_type_id",
  "type": "column",
  "data_type": "id",
  "table_id": "table::companies",
  "name": "catalog_property_type_id",
  "alias": "h",
  "creation_date": "2016-04-14T13:44:09.609Z",
  "creation_user": "user::rag",
  "associated_table_id": "table::property_types"
}