{
  "_id": "column::companies.competing_article_property_type_id",
  "type": "column",
  "table_id": "table::companies",
  "alias": "g",
  "name": "competing_article_property_type_id",
  "data_type": "id",
  "associated_table_id": "table::property_types",
  "mandatory": false
}
