{
  "_id": "column::articles.active_date",
  "type": "column",
  "table_id": "table::articles",
  "alias": "e",
  "name": "active_date",
  "data_type": "date",
  "mandatory": true,
  "export_set": "basic",
  "description":{
    "es": "Fecha entrada en vigor.",
    "en": "Date in force"
  }
}
