{
  "_id": "column::quote_lines.permission_level",
  "type": "column",
  "table_id": "table::quote_lines",
  "alias": "$pl",
  "name": "permission_level",
  "data_type": "permission_level",
  "associated_table_id": "table::users"
}
