{
  "_id": "column::minutes.creation_user",
  "type": "column",
  "data_type": "id",
  "table_id": "table::minutes",
  "alias": "h",
  "name": "creation_user",
  "creation_date": "2016-09-13T14:24:43.990Z",
  "creation_user": "user::rag",
  "associated_table_id": "table::users",
  "primary_key": 1,
  "mandatory": true
}