{
  "_id": "column::warehouse_articles.to_arrive_unit1",
  "type": "column",
  "table_id": "table::warehouse_articles",
  "alias": "i",
  "name": "to_arrive_unit1",
  "data_type": "number",
  "default_format": "currency [[a.c.c]] [[a.c.a]]"
}