{
  "_id": "column::cities.postal_code",
  "type": "column",
  "data_type": "string",
  "table_id": "table::cities",
  "alias": "c",
  "name": "postal_code",
  "creation_date": "2016-02-22T12:41:26.719Z",
  "creation_user": "user::ihud"
}