{
  "_id": "column::tariff_types.active_yn",
  "type": "column",
  "table_id": "table::tariff_types",
  "alias": "h",
  "name": "active_yn",
  "data_type": "string",
  "full_text_search": false,
  "export_set": "basic",
  "description":{
    "es": "Indica si el tipo de tarifa está activo (Valores: Y / N)",
    "en": ""
  }
}
