{
  "_id": "column::quote_lines.article_id",
  "type": "column",
  "table_id": "table::quote_lines",
  "alias": "c",
  "name": "article_id",
  "data_type": "id",
  "associated_table_id": "table::articles"
}
