{
  "_id": "column::order_headers.order_type",
  "type": "column",
  "table_id": "table::order_headers",
  "alias": "b",
  "name": "order_type",
  "data_type": "id",
  "associated_table_id": "table::order_types",
  "primary_key": 2,
  "export_set": "basic",
  "description":{
    "es": "Referencia a: Tipo de pedido",
    "en": ""
  }
}
