{
  "_id": "column::discounts.article_id",
  "type": "column",
  "table_id": "table::discounts",
  "alias": "e",
  "name": "article_id",
  "data_type": "id",
  "associated_table_id": "table::articles",
  "relation_type": "delete_cascade",
  "validation_type": ""
}