{
  "_id": "column::companies.name",
  "type": "column",
  "table_id": "table::companies",
  "alias": "b",
  "name": "name",
  "data_type": "string",
  "full_text_search": true,
  "primary_key": 2,
  "export_set": "basic",
  "description":{
    "es": "Nombre de la empresa.",
    "en": "Field indicating the company name."
  }
}
