{
  "_id": "column::survey_questions.free_answer_type",
  "type": "column",
  "data_type": "string",
  "table_id": "table::survey_questions",
  "alias": "g",
  "name": "free_answer_type",
  "creation_date": "2016-02-12T08:27:14.259Z",
  "creation_user": "user::iaa",
  "mandatory": false
}