{
  "_id": "column::outstanding_balances.company_id",
  "type": "column",
  "table_id": "table::outstanding_balances",
  "alias": "l",
  "name": "company_id",
  "data_type": "id",
  "associated_table_id": "table::companies"
}
