{
  "_id": "column::users.name",
  "type": "column",
  "table_id": "table::users",
  "alias": "c",
  "name": "name",
  "data_type": "string",
  "full_text_search": true,
  "mandatory": true,
  "export_set": "basic",
  "description":{
    "es": "Nombre de usuario",
    "en": "User name."
  }
}
