{
  "_id": "column::contract_headers.customer_id",
  "type": "column",
  "table_id": "table::contract_headers",
  "alias": "d",
  "name": "customer_id",
  "data_type": "id",
  "associated_table_id": "table::customers"
}
