{
  "_id": "column::contacts.phone",
  "type": "column",
  "table_id": "table::contacts",
  "alias": "f",
  "name": "phone",
  "data_type": "string",
  "full_text_search": true,
  "validation_type": "tel",
  "mandatory": false,
  "export_set": "basic",
  "description": {
    "es": "Telefonos de contacto.",
    "en": "Contact phone."
  }
}