{
  "_id": "column::status.code",
  "type": "column",
  "table_id": "table::status",
  "alias": "b",
  "name": "code",
  "data_type": "string",
  "primary_key": 1,
  "export_set": "basic",
  "description":{
    "es": "Código del estado",
    "en": ""
  }
}
