{
  "_id": "column::customer_companies.current_risk",
  "type": "column",
  "table_id": "table::customer_companies",
  "alias": "d",
  "name": "current_risk",
  "data_type": "number",
  "default_format": "number '[[b.a.b.c]]'"
}
