{
  "_id": "column::competing_product_type_customers.competitor_id",
  "type": "column",
  "table_id": "table::competing_product_type_customers",
  "alias": "c",
  "name": "competitor_id",
  "data_type": "id",
  "associated_table_id": "table::competitors",
  "full_text_search": false,
  "primary_key": 3,
  "relation_type": "delete_cascade",
  "validation_type": ""
}