{
  "_id": "column::warehouse_articles.article_id",
  "type": "column",
  "table_id": "table::warehouse_articles",
  "alias": "a",
  "name": "article_id",
  "data_type": "id",
  "associated_table_id": "table::articles",
  "primary_key": 1,
  "export_set": "basic",
  "relation_type": "delete_cascade",
  "validation_type": "",
  "description": {
    "es": "Referencia a: Artículo",
    "en": ""
  }
}