{
  "_id": "column::non_conformance_closures.customer_id",
  "type": "column",
  "data_type": "id",
  "table_id": "table::non_conformance_closures",
  "alias": "d",
  "name": "customer_id",
  "creation_date": "2016-01-15T07:48:34.538Z",
  "creation_user": "user::iaa",
  "associated_table_id": "table::customers"
}