{
  "_id": "column::agent_geolocations.checkin_id",
  "type": "column",
  "table_id": "table::agent_geolocations",
  "alias": "e",
  "name": "checkin_id",
  "data_type": "id",
  "associated_table_id": "table::checkins",
  "full_text_search": false
}
