{
  "_id": "column::customer_order_preparation_lines.price",
  "type": "column",
  "table_id": "table::customer_order_preparation_lines",
  "alias": "e",
  "name": "price",
  "data_type": "number",
  "default_format": "number '[[a.b.s.d.d]]'"
}
