{
  "_id": "column::customers.web",
  "type": "column",
  "table_id": "table::customers",
  "alias": "e",
  "name": "web",
  "data_type": "string",
  "default_format": "web",
  "export_set": "basic",
  "description":{
    "es": "Dirección de la pagina web.",
    "en": "Web url. The value must be a fully qualified URL that includes http:// or https://, and any special characters in the URL must be correctly escaped. See <a target='_blank' href='http://www.w3.org/Addressing/URL/4_URI_Recommentations.html'>http://www.w3.org/Addressing/URL/4_URI_Recommentations.html</a> for a description of how to create fully qualified URL values."
  }
}
