{
  "_id": "column::quote_lines.tax_identification_id",
  "type": "column",
  "table_id": "table::quote_lines",
  "alias": "z",
  "name": "tax_identification_id",
  "data_type": "id",
  "associated_table_id": "table::tax_identifications"
}
