{
  "_id": "column::meetings.meeting_users",
  "type": "column",
  "data_type": "document_group",
  "table_id": "table::meetings",
  "alias": "g",
  "name": "meeting_users",
  "associated_table_id": "table::meeting_users",
  "creation_date": "2016-04-25T08:11:20.939Z",
  "creation_user": "user::ihud",
  "default_format": ""
}