{
  "_id": "column::tax_identification_addresses.address_geojson",
  "type": "column",
  "table_id": "table::tax_identification_addresses",
  "alias": "e",
  "name": "address_geojson",
  "data_type": "address"
}
