{
  "_id": "column::outstanding_balances.customer_id",
  "type": "column",
  "table_id": "table::outstanding_balances",
  "alias": "m",
  "name": "customer_id",
  "data_type": "id",
  "associated_table_id": "table::customers"
}
