{
  "_id": "appcontent::sat.actions_by_customer.index",
  "type": "layout",
  "creation_date": "2016-10-20T12:01:44.015Z",
  "creation_user": "user::ihud",
  "width": 12,
  "id": "root",
  "items": {
    "list1": {
      "type": "record-list",
      "data_context": "b1",
      "edit_action": {
        "route": {
          "module": "sat",
          "endpoint": "actions_by_customer"
        },
        "params": {},
        "options": {
          "popup": true,
          "create": false,
          "delete": true
        }
      }
    }
  }
}