{
  "_id": "appcontent::sat.article_attachment_3d_view.show",
  "type": "layout",
  "creation_date": "2017-02-06T12:20:50.317Z",
  "creation_user": "user::ihud",
  "width": 12,
  "id": "root",
  "items": {
    "list1": {
      "type": "altERP-viewer",
      "data_context": "b1"
    }
  }
}