{
  "_id": "appcontent::crm.quotes_by_tax_identification.show",
  "_rev": "2-7fddc4ed8bee885d65e11fc34d69e423",
  "type": "layout",
  "width": 12,
  "padding": 0,
  "items": {
    "1": {
      "type": "layout",
      "width": "row",
      "data_context": "b1",
      "items": {
        "11": {
          "type": "layout",
          "width": 12,
          "items": {
            "111": {
              "type": "tabs",
              "options": [
                {
                  "label": "$${i18n_t 'quote_header'}$$",
                  "default": true,
                  "content": {
                    "module": "crm",
                    "endpoint": "quote_headers_by_tax_identification",
                    "action": "index"
                  },
                  "params": {
                    "tax_identification_id": "$${_id}$$"
                  }
                },
                {
                  "label": "$${i18n_t 'quote_article'}$$",
                  "content": {
                    "module": "crm",
                    "endpoint": "quote_lines_by_tax_identification",
                    "action": "index"
                  },
                  "params": {
                    "tax_identification_id": "$${_id}$$"
                  }
                }
              ]
            }
          }
        }
      }
    }
  },
  "title": "$${i18n_t 'quotes'}$$"
}