{
  "_id": "appcontent::crm.tax_identifications.show",
  "type": "layout",
  "width": 12,
  "padding": 0,
  "title": "$${b1.a}$$ - $${b1.b}$$",
  "id": "root",
  "items": {
    "design-row1": {
      "type": "layout",
      "width": "row",
      "data_context": "b1",
      "items": {
        "infobox-layout": {
          "type": "layout",
          "width": 12,
          "items": {
            "tab-container": {
              "type": "tabs",
              "options": [
                {
                  "label": "General",
                  "default": true,
                  "content": {
                    "module": "crm",
                    "endpoint": "tax_identifications_general",
                    "action": "show"
                  },
                  "params": {
                    "tax_identification_id": "$${_id}$$"
                  }
                },
                {
                  "label": "$${i18n_tpc 'contact'}$$",
                  "content": {
                    "module": "crm",
                    "endpoint": "contacts_by_tax_identification",
                    "action": "index"
                  },
                  "params": {
                    "tax_identification_id": "$${_id}$$"
                  }
                },
                {
                  "label": "$${i18n_tc 'tracking'}$$",
                  "content": {
                    "module": "crm",
                    "endpoint": "user_messages_by_tax_identification",
                    "action": "index"
                  },
                  "params": {
                    "tax_identification_id": "$${_id}$$"
                  }
                },
                {
                  "label": "$${i18n_tc 'opportunities'}$$",
                  "content": {
                    "module": "crm",
                    "endpoint": "opportunities_by_tax_identification",
                    "action": "index"
                  },
                  "params": {
                    "tax_identification_id": "$${_id}$$"
                  }
                },
                {
                  "label": "$${i18n_tpc 'quote'}$$",
                  "params": {
                    "customer_id": "$${_id}$$",
                    "fuu": "bar"
                  },
                  "options": [
                    {
                      "label": "$${i18n_tc 'quote_header'}$$",
                      "content": {
                        "module": "crm",
                        "endpoint": "quote_headers_by_tax_identification",
                        "action": "index"
                      },
                      "params": {
                        "tax_identification_id": "$${_id}$$"
                      }
                    },
                    {
                      "label": "$${i18n_tc 'quote_article'}$$",
                      "content": {
                        "module": "crm",
                        "endpoint": "quote_lines_by_tax_identification",
                        "action": "index"
                      },
                      "params": {
                        "tax_identification_id": "$${_id}$$"
                      }
                    }
                  ]
                },
                {
                  "label": "$${i18n_tc 'properties'}$$",
                  "content": {
                    "module": "crm",
                    "endpoint": "tax_identification_properties",
                    "action": "show"
                  },
                  "params": {
                    "tax_identification_id": "$${_id}$$"
                  }
                },
                {
                  "label": "$${i18n_pc 'observation'}$$",
                  "content": {
                    "module": "crm",
                    "endpoint": "observations_by_tax_identification",
                    "action": "index"
                  },
                  "params": {
                    "tax_identification_id": "$${_id}$$"
                  }
                },
                {
                  "label": "$${i18n_tc 'minutes'}$$",
                  "cssClass": "delete-inline-xs",
                  "content": {
                    "module": "crm",
                    "endpoint": "minutes_by_tax_identification",
                    "action": "show"
                  },
                  "params": {
                    "tax_identification_id": "$${_id}$$"
                  }
                },
                {
                  "label": "$${i18n_pc 'admin:survey'}$$",
                  "params": {
                    "tax_identification_id": "$${_id}$$"
                  },
                  "options": [
                    {
                      "label": "$${i18n_tc 'admin:introduction'}$$",
                      "default": true,
                      "content": {
                        "module": "crm",
                        "endpoint": "surveys_by_tax_identification",
                        "action": "index"
                      },
                      "params": {
                        "tax_identification_id": "$${_id}$$"
                      }
                    },
                    {
                      "label": "$${i18n_tc 'evolution'}$$",
                      "content": {
                        "module": "crm",
                        "endpoint": "surveys_results_by_tax_identification",
                        "action": "index"
                      },
                      "params": {
                        "tax_identification_id": "$${_id}$$"
                      }
                    }
                  ]
                }
              ]
            }
          }
        }
      }
    }
  }
}