{
  "_id": "appcontent::crm.discounts_by_customer.index",
  "_rev": "5-89f260c888633ad764d5434183ac2e4b",
  "width": 12,
  "items": {
    "list1": {
      "type": "record-list",
      "data_context": "b1",
      "default_view": "table",
      "detail_routef": "/crm/discounts_by_customer/$${_id}$$?customer_id=$${&customer_id}$$&article_id=$${e._id | urlencode}$$",
      "detail_route": {
        "route": {
          "module": "crm",
          "endpoint": "discounts_by_customer"
        },
        "params": {
          "id": "$${_id}$$",
          "customer_id": "$${%customer_id}$$",
          "article_id": "$${e._id}$$"
        }
      }
    }
  },
  "type": "layout",
  "title": "$${i18n_tc 'discounts'}$$"
}