{
  "_id": "appcontent::crm.quote_headers_by_tax_identification.index",
  "width": 12,
  "type": "layout",
  "title": "$${i18n_pc 'quote'}$$",
  "id": "root",
  "items": {
    "list1": {
      "type": "record-list",
      "data_context": "b1",
      "detail_route": "/crm/quote_headers/",
      "data_resume": {
        "resume3": {
          "label": "$${i18n_tc 'total_outstanding_lines'}$$",
          "type": "totalize",
          "column": "p"
        },
        "resume1": {
          "label": "$${i18n_tc 'total_lines'}$$",
          "type": "totalize",
          "column": "r",
          "zone": "left"
        }
      },
      "edit_action": {
        "options": {
          "popup": true,
          "create": false,
          "edit": true,
          "delete": false
        },
        "params": {},
        "route": {
          "module": "crm",
          "endpoint": "quote_headers"
        }
      },
      "icons": [
        "print"
      ]
    }
  }
}