{
  "_id": "appcontent::crm.minutes_general.show",
  "width": 12,
  "title": "$${b1.k.b}$$ - $${b1.k.c}$$",
  "dictation-text": "Acta de visita a $${b1.k.c}$$ de $${b1.b.c}$$. Asunto: $${b1.f}$$. Cuerpo del mensaje: $${b1.g}$$.",
  "creation_date": "2016-07-18T09:47:57.272Z",
  "creation_user": "user::iaa",
  "id": "root",
  "type": "layout",
  "items": {
    "1": {
      "type": "layout",
      "width": "row",
      "data_context": "b1",
      "items": {
        "11": {
          "type": "layout",
          "width": 12,
          "items": {
            "111": {
              "type": "infobox",
              "items": {
                "1111": {
                  "type": "layout",
                  "widthx": "3",
                  "items": {
                    "1111": {
                      "type": "avatar",
                      "data_context": "h",
                      "avatar_column": "e"
                    }
                  }
                },
                "1112": {
                  "type": "layout",
                  "widthx": "6",
                  "items": {
                    "11122": {
                      "type": "field",
                      "label": "$${i18n_tc 'date'}$$",
                      "value": "$${d}$$"
                    },
                    "11123": {
                      "type": "paragraph",
                      "text": "$${h.c}$$"
                    },
                    "11124": {
                      "type": "paragraph",
                      "text": "$${e}$$",
                      "cssClass": "big"
                    }
                  }
                },
                "1113": {
                  "type": "layout",
                  "widthx": "3",
                  "items": {
                    "11132": {
                      "type": "title-small",
                      "title": "$${b.b}$$",
                      "cssClass": "alignRight"
                    },
                    "11133": {
                      "cssClass": "alignRight",
                      "type": "geolocated-icon",
                      "label": "$${i18n_tc 'geolocated_in'}$$",
                      "coordinates": "$${B.coordinates}$$"
                    }
                  }
                }
              }
            }
          }
        }
      }
    },
    "2": {
      "type": "layout",
      "width": "row",
      "data_context": "b1",
      "items": {
        "21": {
          "type": "layout",
          "width": 12,
          "items": {
            "211": {
              "type": "infobox",
              "items": {
                "2111": {
                  "type": "layout",
                  "width": "12",
                  "padding": "0 10px",
                  "items": {
                    "21111": {
                      "type": "paragraph",
                      "text": "$${f}$$",
                      "cssClass": "big"
                    }
                  }
                }
              }
            }
          }
        }
      }
    },
    "3": {
      "type": "layout",
      "width": "row",
      "data_context": "b1",
      "items": {
        "31": {
          "type": "layout",
          "widthx": 6,
          "items": {
            "311": {
              "type": "infobox",
              "contentCssClass": "pbs",
              "items": {
                "3111": {
                  "type": "layout",
                  "width": "12",
                  "padding": "0 10px",
                  "items": {
                    "31111": {
                      "type": "sign-pad",
                      "label": "$${i18n_tc 'customer_signature'}$$",
                      "signature_field": "l"
                    }
                  }
                }
              }
            }
          }
        }
      }
    }
  },
  "share-props": {
    "subject": "Acta de visita a $${b1.k.c}$$. Asunto: $${b1.f}$$",
    "message": "Acta de visita a $${b1.k.c}$$ de $${b1.b.c}$$.\n\nFecha: $${b1.forecasted_or_created | dateFormatExt}$$\n\n$${b1.f}$$\n\n$${b1.g}$$\n\nFirma del cliente:",
    "resource": "b1.aa",
    "url": false
  }
}