{
  "_id": "appcontent::crm.article_groups.index",
  "type": "layout",
  "creation_date": "2016-04-18T09:29:53.837Z",
  "data_context": "b1",
  "creation_user": "user::rag",
  "width": 12,
  "title": "$${%prop_type_name}$$",
  "id": "root",
  "items": {
    "article-group1": {
      "type": "item-groups",
      "group_attr": "'a'",
      "group_value": "$${%prop_type_id}$$",
      "data_context": "b1"
    }
  },
  "filters": {}
}