{
  "_id": "appcontent::crm.competitors.new",
  "_rev": "1-4c8d626f413d696f975cf9e8083032c4",
  "width": 12,
  "type": "layout",
  "data_context": "b1",
  "title": "$${i18n_tc 'competitors'}$$",
  "items": {
    "1": {
      "type": "layout",
      "width": "row",
      "items": {
        "11": {
          "type": "layout",
          "width": 12,
          "items": {
            "111": {
              "type": "input-field",
              "label": "$${i18n_tc 'name'}$$",
              "field": "a"
            }
          }
        }
      }
    }
  }
}