{
  "_id": "appcontent::crm.minutes_by_customer.new",
  "type": "layout",
  "width": 12,
  "data_context": "b1",
  "title": "$${i18n_tc 'minute'}$$ $${b1.k.c}$$",
  "id": "root",
  "items": {
    "1": {
      "type": "layout",
      "width": "row",
      "items": {
        "11": {
          "type": "layout",
          "width": 12,
          "items": {
            "111": {
              "type": "infobox",
              "items": {
                "1111": {
                  "type": "layout",
                  "width": "row",
                  "items": {
                    "11111": {
                      "type": "layout",
                      "width": "12",
                      "items": {
                        "111111": {
                          "type": "input-field",
                          "label": "$${i18n_tc 'minute_type'}$$",
                          "field": "a"
                        }
                      }
                    }
                  }
                },
                "1112": {
                  "type": "layout",
                  "width": "row",
                  "items": {
                    "11121": {
                      "type": "layout",
                      "width": "12",
                      "items": {
                        "111211": {
                          "type": "input-field",
                          "label": "$${i18n_tc 'date'}$$",
                          "field": "d"
                        }
                      }
                    }
                  }
                },
                "1113": {
                  "type": "layout",
                  "width": "row",
                  "items": {
                    "11131": {
                      "type": "layout",
                      "width": "12",
                      "items": {
                        "111311": {
                          "type": "input-field",
                          "label": "$${i18n_tc 'subject'}$$",
                          "field": "f"
                        }
                      }
                    }
                  }
                },
                "1114": {
                  "type": "layout",
                  "width": "row",
                  "items": {
                    "11141": {
                      "type": "layout",
                      "width": "12",
                      "items": {
                        "111411": {
                          "type": "input-field",
                          "label": "$${i18n_tc 'text'}$$",
                          "rows": 7,
                          "field": "g"
                        }
                      }
                    }
                  }
                },
                "1115": {
                  "type": "layout",
                  "width": "row",
                  "items": {
                    "11151": {
                      "type": "layout",
                      "width": "12",
                      "items": {
                        "111511": {
                          "type": "sign-pad",
                          "label": "$${i18n_tc 'customer_signature'}$$",
                          "signature_field": "aa"
                        }
                      }
                    }
                  }
                },
                "1116": {
                  "type": "layout",
                  "width": "row",
                  "items": {
                    "11161": {
                      "type": "layout",
                      "width": "12",
                      "items": {
                        "111611": {
                          "type": "paragraph",
                          "text": "$${survey_types_active}$$",
                          "cssClass": "text-danger pls"
                        }
                      }
                    }
                  }
                }
              }
            }
          }
        }
      }
    },
    "00": {
      "type": "layout",
      "width": "row",
      "items": {
        "001": {
          "type": "layout",
          "width": 12,
          "items": {
            "0011": {
              "type": "data-capture",
              "data": "fuu"
            }
          }
        }
      }
    }
  }
}