{
  "_id": "appcontent::sat.materials_by_task.new",
  "type": "layout",
  "width": 12,
  "data_context": "b1",
  "title": "$${i18n_tc 'materials'}$$: $${b1.a.b}$$",
  "id": "root",
  "items": {
    "1": {
      "type": "layout",
      "width": "row",
      "items": {
        "11": {
          "type": "layout",
          "width": 12,
          "items": {
            "111": {
              "type": "infobox",
              "items": {
                "1112": {
                  "type": "layout",
                  "width": "row",
                  "items": {
                    "11121": {
                      "type": "layout",
                      "width": "12",
                      "items": {
                        "111211": {
                          "type": "input-field",
                          "label": "$${i18n_tc 'date'}$$",
                          "field": "b"
                        }
                      }
                    }
                  }
                },
                "1113": {
                  "type": "layout",
                  "width": "row",
                  "items": {
                    "11131": {
                      "type": "layout",
                      "width": "12",
                      "items": {
                        "111311": {
                          "type": "input-field",
                          "label": "$${i18n_tc 'article'}$$",
                          "field": "c"
                        }
                      }
                    }
                  }
                },
                "1114": {
                  "type": "layout",
                  "width": "row",
                  "items": {
                    "11141": {
                      "type": "layout",
                      "width": "12",
                      "items": {
                        "111411": {
                          "type": "input-field",
                          "label": "$${i18n_tc 'quantity'}$$",
                          "field": "e"
                        }
                      }
                    }
                  }
                },
                "1115": {
                  "type": "layout",
                  "width": "row",
                  "items": {
                    "11151": {
                      "type": "layout",
                      "width": "12",
                      "items": {
                        "111511": {
                          "type": "input-field",
                          "label": "$${i18n_tc 'warehouse'}$$",
                          "field": "d",
                          "relatedFilters": {
                            "column": "a",
                            "dependsOn": "c"
                          }
                        }
                      }
                    }
                  }
                },
                "1116": {
                  "type": "layout",
                  "width": "row",
                  "items": {
                    "11161": {
                      "type": "layout",
                      "width": "12",
                      "items": {
                        "111611": {
                          "type": "field",
                          "label": "$${i18n_tc 'price'}$$",
                          "value": "$${g | number '2'}$$ ",
                          "cssClass": "pts mbs pls",
                          "relatedFilters": {
                            "column": "a",
                            "dependsOn": "c"
                          }
                        }
                      }
                    }
                  }
                },
                "1117": {
                  "type": "layout",
                  "width": "row",
                  "items": {
                    "11171": {
                      "type": "layout",
                      "width": "12",
                      "items": {
                        "111711": {
                          "type": "field",
                          "label": "$${i18n_tc 'total'}$$",
                          "value": "$${total | number '2'}$$",
                          "cssClass": "pts mbs pls"
                        }
                      }
                    }
                  }
                },
                "1118": {
                  "type": "layout",
                  "width": "row",
                  "items": {
                    "11181": {
                      "type": "layout",
                      "width": "12",
                      "items": {
                        "111811": {
                          "type": "input-field",
                          "label": "$${i18n_tc 'observation'}$$",
                          "rows": 15,
                          "field": "f"
                        }
                      }
                    }
                  }
                }
              }
            }
          }
        }
      }
    },
    "00": {
      "type": "layout",
      "width": "row",
      "items": {
        "001": {
          "type": "layout",
          "width": 12,
          "items": {
            "0011": {
              "type": "data-capture",
              "data": "fuu"
            }
          }
        }
      }
    }
  }
}