{
  "_id": "appcontent::crm.statistics_by_customer.show",
  "_rev": "9-cb605b58ffc606d82203ead54b290cf2",
  "width": 12,
  "items": {
    "list1": {
      "type": "stat-viewer",
      "data_context": "b1",
      "default_view": "table",
      "origin": "C"
    }
  },
  "type": "layout",
  "title": "$${i18n_tc 'statistics'}$$ $${b_customer.c}$$"
}