{
  "_id": "appcontent::crm.surveys_by_tax_identification.index",
  "type": "layout",
  "creation_date": "2016-03-29T10:31:33.759Z",
  "creation_user": "user::iaa",
  "width": 12,
  "id": "root",
  "items": {
    "list1": {
      "type": "record-list",
      "data_context": "b1",
      "default_view": "list",
      "edit_action": {
        "route": {
          "module": "crm",
          "endpoint": "surveys_by_tax_identification"
        },
        "params": {
          "tax_identification_id": "$${%tax_identification_id}$$"
        },
        "options": {
          "popup": true,
          "create": true,
          "edit": false,
          "delete": true
        }
      },
      "detail_route": {
        "params": {},
        "route": {
          "module": "crm",
          "endpoint": "surveys_by_tax_identification"
        }
      }
    }
  }
}