{
  "_id": "appcontent::crm.article_attachment_3d_view.show",
  "type": "layout",
  "creation_date": "2016-03-16T12:43:29.277Z",
  "creation_user": "user::rag",
  "width": 12,
  "id": "root",
  "items": {
    "list1": {
      "type": "altERP-viewer",
      "data_context": "b1"
    }
  }
}