{
  "_id": "appcontent::crm.customer_order_preparation.edit",
  "type": "layout",
  "width": 12,
  "title": " ",
  "id": "root",
  "items": {
    "1": {
      "type": "layout",
      "width": "row",
      "data_context": "b1",
      "items": {
        "11": {
          "type": "layout",
          "width": 12,
          "items": {
            "111": {
              "type": "infobox",
              "contentCssClass": "height-auto",
              "items": {
                "1111": {
                  "type": "layout",
                  "width": "12",
                  "items": {
                    "11111": {
                      "type": "layout",
                      "widthx": 8,
                      "cssClass": "plm mts",
                      "items": {
                        "111111": {
                          "type": "field",
                          "label": "$${i18n_tc 'tariff'}$$",
                          "value": "$${b.s.b}$$ - $${b.s.c}$$"
                        }
                      }
                    },
                    "11112": {
                      "type": "layout",
                      "widthx": 4,
                      "items": {
                        "111121": {
                          "type": "field",
                          "label": "$${i18n_tc 'date'}$$",
                          "cssClass": "mts alignRight",
                          "value": "$${d}$$"
                        }
                      }
                    }
                  }
                },
                "1112": {
                  "type": "layout",
                  "width": "12",
                  "items": {
                    "11121": {
                      "type": "layout",
                      "widthx": 12,
                      "items": {
                        "111211": {
                          "type": "input-field",
                          "label": "$${i18n_tc 'reference'}$$",
                          "field": "e"
                        }
                      }
                    }
                  }
                },
                "1113": {
                  "type": "layout",
                  "width": "12",
                  "items": {
                    "11131": {
                      "type": "layout",
                      "widthx": 12,
                      "items": {
                        "111311": {
                          "type": "input-field",
                          "label": "$${i18n_pc 'observation'}$$",
                          "field": "f",
                          "rows": 3
                        }
                      }
                    }
                  }
                }
              }
            }
          }
        }
      }
    },
    "2": {
      "type": "layout",
      "paddingTop": "15px",
      "width": "row",
      "data_context": "b1",
      "items": {
        "20": {
          "type": "layout",
          "width": 3,
          "widthx": 3
        },
        "21": {
          "type": "layout",
          "width": 3,
          "widthx": 3,
          "items": {
            "211": {
              "type": "action-button",
              "label": "$${i18n_tc 'confirm_request'}$$",
              "action": {
                "module": "crm",
                "action": "confirmOrderPreparation"
              }
            }
          }
        },
        "22": {
          "type": "layout",
          "width": 3,
          "widthx": 3,
          "items": {
            "221": {
              "type": "action-button",
              "cssClass": "btn-danger",
              "label": "$${i18n_tc 'abort_request'}$$",
              "action": {
                "module": "crm",
                "action": "deleteOrderPreparation"
              }
            }
          }
        },
        "23": {
          "type": "layout",
          "width": 3,
          "widthx": 3,
          "items": {
            "231": {
              "type": "action-button",
              "label": "$${i18n_tc 'add_item'}$$",
              "data_context": "_r_BJ_a",
              "action": {
                "module": "crm",
                "action": "createOrderPreparationLineSelect"
              },
              "params": {
                "foo": "bar"
              }
            }
          }
        }
      }
    },
    "3": {
      "type": "layout",
      "width": 12,
      "data_context": "b1",
      "items": {
        "31": {
          "type": "record-list",
          "data_context": "_r_BJ_a",
          "default_view": "list",
          "no_data_found": {
            "icon": "archive",
            "message": "$${i18n_tc 'order-preparation-lines-empty-message'}$$"
          }
        }
      }
    }
  }
}