{
  "_id": "appcontent::crm.customer_properties.edit",
  "_rev": "1-f3784b3c442f44646d5bfa15589bfb62",
  "type": "layout",
  "width": "row",
  "title": "$${i18n_tc 'properties'}$$",
  "data_context": "b1",
  "items": {
    "00": {
      "type": "layout",
      "width": 12,
      "items": {
        "0": {
          "type": "infobox",
          "mini_title": "  ",
          "items": {
            "1": {
              "type": "layout",
              "width": "row",
              "items": {
                "12": {
                  "type": "layout",
                  "width": "12",
                  "items": {
                    "121": {
                      "type": "input-field",
                      "label": "$${i18n_tc 'property_type'}$$",
                      "field": "b"
                    }
                  }
                },
                "13": {
                  "type": "layout",
                  "width": "12",
                  "items": {
                    "131": {
                      "type": "input-field",
                      "label": "$${i18n_tc 'value'}$$",
                      "field": "d"
                    }
                  }
                }
              }
            }
          }
        }
      }
    }
  }
}