{
  "_id": "appcontent::crm.surveys_minutes_by_customer.show",
  "type": "layout",
  "creation_date": "2016-07-18T10:50:17.809Z",
  "creation_user": "user::iaa",
  "width": 12,
  "data-context": "b1",
  "title": "$${b1.a.b}$$",
  "id": "root",
  "items": {
    "survey1": {
      "type": "survey-minutes",
      "data_context": "b1"
    }
  }
}