{
  "_id": "appcontent::sat.minute_actions.new",
  "type": "layout",
  "width": 12,
  "data_context": "b1",
  "title": "$${i18n_tc 'operations'}$$",
  "id": "root",
  "items": {
    "1": {
      "type": "layout",
      "width": "row",
      "items": {
        "11": {
          "type": "layout",
          "width": 12,
          "items": {
            "111": {
              "type": "infobox",
              "items": {
                "1111": {
                  "type": "layout",
                  "width": "row",
                  "items": {
                    "11111": {
                      "type": "layout",
                      "width": "12",
                      "items": {
                        "111111": {
                          "type": "input-field",
                          "label": "$${i18n_tc 'action_number'}$$",
                          "field": "a"
                        }
                      }
                    }
                  }
                },
                "1112": {
                  "type": "layout",
                  "width": "row",
                  "items": {
                    "11121": {
                      "type": "layout",
                      "width": "12",
                      "items": {
                        "111211": {
                          "type": "input-field",
                          "label": "$${i18n_tc 'description'}$$",
                          "rows": 7,
                          "field": "g"
                        }
                      }
                    }
                  }
                },
                "1113": {
                  "type": "layout",
                  "width": "row",
                  "items": {
                    "11131": {
                      "type": "layout",
                      "width": "12",
                      "items": {
                        "111311": {
                          "type": "input-field",
                          "label": "$${i18n_tc 'responsible_user'}$$",
                          "field": "e"
                        }
                      }
                    }
                  }
                },
                "1114": {
                  "type": "layout",
                  "width": "row",
                  "items": {
                    "11141": {
                      "type": "layout",
                      "width": "12",
                      "items": {
                        "111411": {
                          "type": "input-field",
                          "label": "$${i18n_tc 'forecasted_closing_date'}$$",
                          "field": "i"
                        }
                      }
                    }
                  }
                },
                "1115": {
                  "type": "layout",
                  "width": "row",
                  "items": {
                    "11151": {
                      "type": "layout",
                      "width": "12",
                      "items": {
                        "111511": {
                          "type": "input-field",
                          "label": "$${i18n_tc 'real_closing_date'}$$",
                          "field": "j"
                        }
                      }
                    }
                  }
                },
                "1116": {
                  "type": "layout",
                  "width": "row",
                  "items": {
                    "11161": {
                      "type": "layout",
                      "width": "12",
                      "items": {
                        "111611": {
                          "type": "input-field",
                          "label": "$${i18n_tc 'closing_observation'}$$",
                          "rows": 7,
                          "field": "k"
                        }
                      }
                    }
                  }
                }
              }
            }
          }
        }
      }
    },
    "00": {
      "type": "layout",
      "width": "row",
      "items": {
        "001": {
          "type": "layout",
          "width": 12,
          "items": {
            "0011": {
              "type": "data-capture",
              "data": "fuu"
            }
          }
        }
      }
    }
  }
}