{
  "_id": "appcontent::crm.quotes.index",
  "type": "layout",
  "width": 12,
  "padding": 0,
  "items": {
    "design-row1": {
      "type": "layout",
      "width": "row",
      "items": {
        "infobox-layout": {
          "type": "layout",
          "width": 12,
          "items": {
            "tab-container": {
              "type": "tabs",
              "options": [
                {
                  "label": "$${i18n_tc 'quotes_diary'}$$",
                  "default": true,
                  "content": {
                    "module": "crm",
                    "endpoint": "quote_headers",
                    "action": "index"
                  }
                },
                {
                  "label": "$${i18n_tc 'quotes_by_article'}$$",
                  "content": {
                    "module": "crm",
                    "endpoint": "quote_lines",
                    "action": "index"
                  }
                }
              ]
            }
          }
        }
      }
    }
  },
  "title": "$${i18n_tpc 'quote'}$$"
}