{
  "_id": "appcontent::sat.contacts_by_customer.index",
  "width": 12,
  "type": "layout",
  "title": "$${i18n_tp 'contact'}$$",
  "id": "root",
  "items": {
    "list1": {
      "type": "record-list",
      "navigate_detail": false,
      "editable": true,
      "data_context": "b1",
      "default_view": "extended",
      "edit_action": {
        "options": {
          "popup": true
        },
        "params": {
          "customer_id": "$${%customer_id}$$",
          "tax_identification_id": "$${%tax_identification_id}$$"
        },
        "route": {
          "module": "sat",
          "endpoint": "customer_contacts"
        }
      }
    }
  }
}