{
  "_id": "appcontent::crm.order_headers.show",
  "creation_date": "2016-06-14T13:52:40.068Z",
  "creation_user": "user::rag",
  "type": "layout",
  "width": 12,
  "padding": 0,
  "title": "$${b1.b.b}$$ / $${b1.c}$$",
  "id": "root",
  "items": {
    "design-row1": {
      "type": "layout",
      "width": "row",
      "data_context": "b1",
      "items": {
        "infobox-layout": {
          "type": "layout",
          "width": 12,
          "items": {
            "infobox-layout1": {
              "type": "tabs",
              "options": [
                {
                  "label": "$${i18n_tc 'detail'}$$",
                  "default": true,
                  "content": {
                    "module": "crm",
                    "endpoint": "order_headers_detail",
                    "action": "index"
                  },
                  "params": {
                    "id": "$${_id}$$",
                    "order_header_id": "$${%order_header_id}$$",
                    "customer_id": "$${%customer_id}$$"
                  }
                },
                {
                  "label": "$${i18n_tc 'minutes'}$$",
                  "cssClass": "delete-inline-xs",
                  "params": {
                    "order_header_id": "$${%order_header_id}$$",
                    "customer_id": "$${%customer_id}$$"
                  },
                  "content": {
                    "module": "crm",
                    "endpoint": "minutes_by_order",
                    "action": "index"
                  }
                }
              ]
            }
          }
        }
      }
    }
  }
}