{
  "_id": "appcontent::admin.surveys_results_free_text.index",
  "type": "layout",
  "creation_date": "2016-06-23T15:46:10.325Z",
  "creation_user": "user::iaa",
  "width": 12,
  "title": "$${i18n_tc 'evolution'}$$",
  "id": "root",
  "items": {
    "freeText": {
      "type": "free-text-answers",
      "data_context": "b1",
      "isAdmin": true
    }
  }
}