{
  "_id": "appcontent::crm.agents_map.index",
  "_rev": "9-41f4dc1367d97a0125b439df26774e0e",
  "type": "layout",
  "title": "$${i18n_tc 'agents_map'}$$",
  "width": 12,
  "items": {
    "1": {
      "type": "layout",
      "width": "row",
      "data_context": "b1",
      "items": {
        "11": {
          "type": "layout",
          "width": "row",
          "data_context": "b1",
          "items": {
            "111": {
              "type": "layout",
              "width": 12,
              "items": {
                "1111": {
                  "type": "infobox",
                  "title": "$${i18n_pc 'address'}$$",
                  "items": {
                    "11111": {
                      "type": "mapbox",
                      "coords": "'$${_r_AW_a.c.coordinates}$$'",
                      "title": "$${a}$$",
                      "description": "$${_r_AW_a.b}$$",
                      "avatar": "e",
                      "detail_route": "/crm/agents_map/$${_id}$$"
                    }
                  }
                }
              }
            }
          }
        }
      }
    }
  }
}