{
  "_id": "appcontent::sat.work_reports.edit",
  "type": "layout",
  "width": 12,
  "data_context": "b1",
  "title": "$${i18n_tc 'work_reports'}$$",
  "id": "root",
  "items": {
    "1": {
      "type": "layout",
      "width": "row",
      "items": {
        "11": {
          "type": "layout",
          "width": 12,
          "items": {
            "111": {
              "type": "infobox",
              "items": {
                "1111": {
                  "type": "layout",
                  "width": "row",
                  "items": {
                    "11111": {
                      "type": "layout",
                      "width": "12",
                      "items": {
                        "111111": {
                          "type": "input-field",
                          "label": "$${i18n_tc 'task'}$$",
                          "field": "a",
                          "execute_workflow": true,
                          "action": {
                            "module": "sat",
                            "action": "selectTaskForWorkreports"
                          }
                        }
                      }
                    }
                  }
                },
                "1112": {
                  "type": "layout",
                  "width": "row",
                  "items": {
                    "11121": {
                      "type": "layout",
                      "width": "12",
                      "items": {
                        "111211": {
                          "type": "input-field",
                          "label": "$${i18n_tc 'start_date'}$$",
                          "field": "b"
                        }
                      }
                    }
                  }
                },
                "1113": {
                  "type": "layout",
                  "width": "row",
                  "items": {
                    "11131": {
                      "type": "layout",
                      "width": "12",
                      "items": {
                        "111311": {
                          "type": "input-field",
                          "label": "$${i18n_tc 'end_date'}$$",
                          "field": "c"
                        }
                      }
                    }
                  }
                },
                "1114": {
                  "type": "layout",
                  "width": "row",
                  "items": {
                    "11141": {
                      "type": "layout",
                      "width": "12",
                      "items": {
                        "111411": {
                          "icon": "icon-plane",
                          "type": "input-field",
                          "label": "$${i18n_tc 'displacement'}$$",
                          "field": "h"
                        }
                      }
                    }
                  }
                },
                "1115": {
                  "type": "layout",
                  "width": "row",
                  "items": {
                    "11151": {
                      "type": "layout",
                      "width": "12",
                      "items": {
                        "111511": {
                          "type": "input-field",
                          "label": "$${i18n_tc 'observation'}$$",
                          "rows": 15,
                          "field": "f"
                        }
                      }
                    }
                  }
                }
              }
            }
          }
        }
      }
    }
  }
}