{
  "_id": "appcontent::crm.competing_products.new",
  "_rev": "6-ab8baedacb97d4aaecc7d57f4ed5e1ed",
  "width": 12,
  "type": "layout",
  "data_context": "b1",
  "title": "$${i18n_tc 'competing_products'}$$",
  "items": {
    "1": {
      "type": "layout",
      "width": "row",
      "items": {
        "11": {
          "type": "layout",
          "width": 12,
          "items": {
            "111": {
              "type": "input-field",
              "label": "$${i18n_tc 'name'}$$",
              "field": "b"
            }
          }
        }
      }
    }
  }
}