{
  "_id": "appcontent::crm.article_groups_select.index",
  "type": "layout",
  "creation_date": "2016-04-28T11:48:45.763Z",
  "creation_user": "user::rag",
  "data_context": "b1",
  "width": 12,
  "title": "$${%prop_type_name}$$",
  "id": "root",
  "items": {
    "article-group1": {
      "type": "item-groups",
      "group_attr": "'a'",
      "group_value": "$${%prop_type_id}$$",
      "data_context": "b1",
      "to_select": "$${%toSelect}$$"
    }
  },
  "filters": {}
}