{
  "_id": "appcontent::crm.customer_observations.edit",
  "_rev": "8-fd812267bb8b544272f33947fee97491",
  "type": "layout",
  "width": 12,
  "title": "$${i18n_tc 'observation'}$$",
  "data_context": "b1",
  "items": {
    "000": {
      "type": "layout",
      "width": "row",
      "items": {
        "00": {
          "type": "layout",
          "width": 12,
          "items": {
            "0": {
              "type": "infobox",
              "mini_title": "Observación",
              "items": {
                "1": {
                  "type": "layout",
                  "width": "row",
                  "items": {
                    "11": {
                      "type": "layout",
                      "width": "12",
                      "items": {
                        "111": {
                          "type": "input-field",
                          "label": "$${i18n_tc 'customer'}$$",
                          "field": "a"
                        }
                      }
                    },
                    "12": {
                      "type": "layout",
                      "width": "12",
                      "items": {
                        "121": {
                          "type": "input-field",
                          "label": "$${i18n_tc 'observation_type'}$$",
                          "field": "b"
                        }
                      }
                    },
                    "13": {
                      "type": "layout",
                      "width": "12",
                      "items": {
                        "131": {
                          "type": "input-field",
                          "label": "$${i18n_tc 'observation'}$$",
                          "field": "c"
                        }
                      }
                    }
                  }
                }
              }
            }
          }
        }
      }
    }
  }
}