{
  "_id": "appcontent::sat.surveys_by_customer.show",
  "type": "layout",
  "creation_date": "2017-01-10T10:37:24.952Z",
  "creation_user": "user::ihud",
  "width": 12,
  "data-context": "b1",
  "title": "$${b1.a.b}$$",
  "id": "root",
  "items": {
    "survey1": {
      "type": "survey-answers",
      "data_context": "b1"
    }
  }
}