{
  "_id": "appsidebar-content::now",
  "_rev": "3-ed3a9aa1400fcebbd479366a837b980d",
  "width": 12,
  "type": "layout",
  "cssClass": "accordionParent",
  "items": {
    "1": {
      "width": 12,
      "type": "layout",
      "items": {
        "11": {
          "type": "stacked-menu-title",
          "target": "nowMenuOptions",
          "title": "NOW"
        }
      }
    },
    "2": {
      "type": "layout",
      "width": 12,
      "cssClass": "panel",
      "items": {
        "menu": {
          "groupId": "nowMenuOptions",
          "cssClass": "in",
          "type": "stacked-menu",
          "items": {
            "20": {
              "type": "stacked-menu-option",
              "label": "$${i18n_tc 'dashboard'}$$",
              "action_route": "/now/dashboard/",
              "icon": "icon-home",
              "cssClass": "stacked-menu-separator"
            },
            "21": {
              "type": "stacked-menu-option",
              "label": "$${i18n_pc 'customer'}$$",
              "action_route": "/crm/customers/",
              "icon": "icon-group"
            },
            "28": {
              "type": "stacked-menu-option",
              "label": "$${i18n_tc 'contact'}$$",
              "action_route": "/crm/contacts/",
              "icon": "icon-phone"
            },
            "30": {
              "type": "stacked-menu-option",
              "label": "$${i18n_tc 'schedule'}$$",
              "action_route": "/crm/meetings_by_user/",
              "icon": "icon-calendar",
              "cssClass": "stacked-menu-separator"
            }
          }
        }
      }
    }
  }
}
