{
  "_id": "print::d.crm.quote_headers_by_customer_id.show",
  "type": "layout",
  "pdf_options": {
    "orientation": "l",
    "title": "$${i18n_tc 'quotes_diary'}$$"
  },
  "items":{
    "table": [
      "w",
      "c",
      "f",
      "u",
      "v",
      "k.b"
    ]
  }
}