{
  "_id": "query_builder::CE.crm.minute_actions.index",
  "type": "layout",
  "creation_date": "2016-10-25T07:03:44.805Z",
  "creation_user": "user::rag",
  "id": "root",
  "column_filters": [
    "e",
    "i",
    "j",
    "l"
  ]
}