{
  "_id": "query_builder::CE",
  "type": "layout",
  "creation_date": "2016-10-11T15:37:09.045Z",
  "creation_user": "user::ihud",
  "id": "root",
  "column_filters": [
    "e",
    "f",
    "h",
    "i",
    "j",
    "l"
  ]
}