{
  "_id": "record::O.crm.discounts-B2.show",
  "type": "layout",
  "width": 12,
  "id": "root",
  "items": {
    "2": {
      "type": "layout",
      "widthx": "9",
      "paddingTop": "10px",
      "items": {
        "21": {
          "type": "layout",
          "width": "row",
          "items": {
            "211": {
              "type": "title-small",
              "title": "$${e.a}$$ - $${za | multilanguage}$$"
            }
          }
        }
      }
    },
    "3": {
      "type": "layout",
      "widthx": "3",
      "paddingTop": "10px",
      "items": {
        "31": {
          "type": "layout",
          "width": "row",
          "items": {
            "311": {
              "type": "field",
              "cssClass": "alignRight",
              "label": "$${i18n_tc 'discount'}$$",
              "value": "$${i | number 2}$$ $${z}$$"
            }
          }
        },
        "32": {
          "type": "layout",
          "width": "row",
          "items": {
            "321": {
              "type": "field",
              "cssClass": "alignRight",
              "label": "$${i18n_tc 'cuantity'}$$",
              "value": "$${g}$$ $${h.a}$$"
            }
          }
        }
      }
    }
  }
}