{
  "_id": "record::j",
  "_rev": "4-0e10ae4884d43002e54c86a31ccbf738",
  "width": 12,
  "type": "layout",
  "items": {
    "1": {
      "type": "layout",
      "widthx": "12",
      "items": {
        "code": {
          "type": "paragraph",
          "text": "$${b}$$ - $${c}$$"
        }
      }
    }
  }
}