{
  "_id": "record::CC.sat.materials_by_task.index",
  "type": "layout",
  "creation_date": "2016-05-18T10:44:30.146Z",
  "creation_user": "user::agy",
  "width": 12,
  "cssClass": "client",
  "id": "root",
  "items": {
    "1": {
      "widthx": 12,
      "type": "layout",
      "items": {
        "11": {
          "type": "layout",
          "width": "row",
          "items": {
            "111": {
              "type": "layout",
              "widthx": "6",
              "items": {
                "1111": {
                  "type": "title-medium",
                  "cssClass": "alignLeft",
                  "title": "$${c.a}$$ $${c.b}$$"
                }
              }
            },
            "112": {
              "type": "layout",
              "widthx": "4",
              "items": {
                "1121": {
                  "type": "paragraph",
                  "text": ""
                }
              }
            },
            "113": {
              "type": "layout",
              "widthx": "2",
              "cssClass": "alignRight",
              "items": {
                "1131": {
                  "type": "paragraph",
                  "text": "$${b | date}$$"
                }
              }
            }
          }
        }
      }
    },
    "2": {
      "type": "layout",
      "widthx": "12",
      "items": {
        "21": {
          "type": "layout",
          "width": "row",
          "items": {
            "211": {
              "type": "layout",
              "widthx": "6",
              "items": {
                "2111": {
                  "type": "field",
                  "label": "Cantidad",
                  "value": "$${e}$$ $${c.c.a}$$"
                }
              }
            },
            "212": {
              "type": "layout",
              "widthx": "3",
              "items": {
                "2121": {
                  "type": "field",
                  "value": " $${g | number 2}$$",
                  "label": "Precio"
                }
              }
            },
            "213": {
              "type": "layout",
              "widthx": "3",
              "cssClass": "alignRight",
              "items": {
                "2131": {
                  "type": "field",
                  "label": "$${i18n_tc 'importe'}$$",
                  "value": "$${total | number 2}$$ $${%currency}$$"
                }
              }
            }
          }
        },
        "22": {
          "type": "layout",
          "width": "row",
          "items": {
            "221": {
              "type": "layout",
              "widthx": "12",
              "items": {
                "2211": {
                  "type": "paragraph",
                  "text": "$${f}$$"
                }
              }
            }
          }
        }
      }
    }
  }
}