{
  "_id": "record::L",
  "width": 12,
  "type": "layout",
  "title": "$${i18n_t 'properties'}$$",
  "id": "root",
  "items": {
    "1": {
      "type": "layout",
      "width": "row",
      "items": {
        "10": {
          "type": "layout",
          "widthx": "1",
          "items": {
            "101": {
              "type": "avatar",
              "size": "only-icon"
            }
          }
        },
        "11": {
          "type": "layout",
          "widthx": "5",
          "items": {
            "111": {
              "type": "paragraph",
              "text": "$${b.b}$$"
            }
          }
        },
        "12": {
          "type": "layout",
          "widthx": "6",
          "items": {
            "121": {
              "type": "paragraph",
              "text": "$${value}$$",
              "cssClass": "alignRight bold"
            }
          }
        }
      }
    }
  }
}