{
  "_id": "record::A.crm.agents.index",
  "_rev": "20-a9f840dbaa1a5e52311608c3b204bc25",
  "width": 12,
  "cssClass": "borderLight",
  "type": "layout",
  "items": {
    "2": {
      "type": "layout",
      "smallx": "12",
      "widthx": "3",
      "items": {
        "avatar": {
          "type": "avatar",
          "data_context": "e",
          "avatar_type": "rectangle",
          "avatar_column": "e"
        }
      }
    },
    "3": {
      "type": "layout",
      "smallx": "12",
      "widthx": "9",
      "items": {
        "31": {
          "type": "layout",
          "width": "row",
          "items": {
            "311": {
              "type": "layout",
              "widthx": "12",
              "items": {
                "3111": {
                  "type": "title-medium",
                  "title": "$${a}$$"
                }
              }
            }
          }
        },
        "32": {
          "type": "layout",
          "width": "row",
          "items": {
            "321": {
              "type": "layout",
              "widthx": "6",
              "items": {
                "3211": {
                  "type": "field",
                  "label": "$${i18n_tc 'number_of_visits'}$$",
                  "value": "$${f}$$"
                }
              }
            },
            "322": {
              "type": "layout",
              "widthx": "6",
              "items": {
                "3221": {
                  "type": "field",
                  "label": "$${i18n_tc 'customer_visits'}$$",
                  "cssClass": "alignRight",
                  "value": "$${g}$$"
                },
                "3222": {
                  "type": "field",
                  "label": "$${i18n_tc 'other_company_visits'}$$",
                  "cssClass": "alignRight",
                  "value": "$${h}$$"
                }
              }
            }
          }
        }
      }
    }
  }
}