{
  "_id": "record::BN.sat.work_reports.index",
  "type": "layout",
  "width": 12,
  "cssClass": "client",
  "id": "root",
  "items": {
    "1": {
      "type": "layout",
      "widthx": "3",
      "items": {
        "11": {
          "type": "avatar",
          "avatar_column": "g.v",
          "image_type": "customers"
        }
      }
    },
    "2": {
      "type": "layout",
      "widthx": "9",
      "items": {
        "21": {
          "type": "layout",
          "width": "row",
          "items": {
            "211": {
              "type": "layout",
              "widthx": "5",
              "items": {
                "2111": {
                  "type": "title-medium",
                  "cssClass": "alignLeft",
                  "title": "$${a.e}$$ $${a.f}$$ / $${a.d}$$"
                }
              }
            },
            "212": {
              "type": "layout",
              "widthx": "4",
              "items": {
                "2121": {
                  "type": "field",
                  "value": "$${b | date 'L'}$$ $${b | date 'HH:mm'}$$ - $${c | date 'HH:mm'}$$"
                }
              }
            },
            "213": {
              "type": "layout",
              "widthx": "3",
              "items": {
                "2131": {
                  "type": "field",
                  "label": "$${i18n_tc 'duration'}$$",
                  "value": "$${d | number 2}$$ h",
                  "cssClass": "alignRight pte"
                }
              }
            }
          }
        },
        "22": {
          "type": "layout",
          "width": "row",
          "items": {
            "221": {
              "type": "layout",
              "widthx": "6",
              "items": {
                "2211": {
                  "type": "paragraph",
                  "cssClass": "mte",
                  "text": "$${g.c}$$"
                }
              }
            }
          }
        },
        "23": {
          "type": "layout",
          "width": "row",
          "items": {
            "231": {
              "type": "layout",
              "widthx": "11",
              "items": {
                "2311": {
                  "type": "paragraph",
                  "cssClass": "mte",
                  "text": "$${f}$$"
                }
              }
            },
            "232": {
              "type": "layout",
              "widthx": "1",
              "items": {
                "2321": {
                  "type": "avatar",
                  "size": "only-icon"
                }
              }
            }
          }
        }
      }
    }
  }
}