{
  "_id": "record::E",
  "_rev": "5-cb6f23d546b18cb37da76aff18d667a0",
  "width": 12,
  "type": "layout",
  "items": {
    "1": {
      "type": "layout",
      "widthx": "12",
      "items": {
        "code": {
          "type": "paragraph",
          "text": "$${b}$$"
        },
        "name": {
          "type": "paragraph",
          "cssClass": "light-text",
          "text": "$${a.a}$$"
        }
      }
    }
  }
}