{
  "_id": "record::CE.sat.actions_by_customer.index",
  "type": "layout",
  "width": 12,
  "cssClass": "client",
  "creation_date": "2016-10-20T12:11:53.226Z",
  "creation_user": "user::ihud",
  "id": "root",
  "items": {
    "1": {
      "type": "clip",
      "value": " $${zzz}$$",
      "color": "$${status_color}$$"
    },
    "2": {
      "type": "layout",
      "widthx": "12",
      "items": {
        "21": {
          "type": "layout",
          "width": "row",
          "items": {
            "211": {
              "type": "layout",
              "widthx": "6",
              "items": {
                "2111": {
                  "type": "layout",
                  "widthx": "6",
                  "items": {
                    "21111": {
                      "type": "field",
                      "label": "$${i18n_tc 'forecasted'}$$",
                      "value": "$${i}$$"
                    }
                  }
                },
                "2112": {
                  "type": "layout",
                  "widthx": "6",
                  "items": {
                    "21121": {
                      "type": "field",
                      "value": "$${e.c}$$"
                    }
                  }
                }
              }
            },
            "212": {
              "type": "layout",
              "widthx": "6",
              "items": {
                "2121": {
                  "type": "layout",
                  "widthx": "6",
                  "items": {
                    "21211": {
                      "type": "field",
                      "label": "$${i18n_tc 'creation'}$$",
                      "value": "$${h}$$"
                    }
                  }
                },
                "2122": {
                  "type": "layout",
                  "widthx": "6",
                  "items": {
                    "21212": {
                      "type": "field",
                      "value": "$${f.c}$$"
                    }
                  }
                }
              }
            }
          }
        },
        "22": {
          "type": "layout",
          "width": "row",
          "items": {
            "221": {
              "type": "layout",
              "widthx": "12",
              "items": {
                "2211": {
                  "cssClass": "paragraph",
                  "type": "field",
                  "label": "",
                  "value": "$${g}$$"
                }
              }
            }
          }
        },
        "23": {
          "type": "layout",
          "width": "row",
          "items": {
            "231": {
              "type": "layout",
              "widthx": "12",
              "items": {
                "2311": {
                  "cssClass": "paragraph",
                  "type": "field",
                  "label": "$${i18n_tc 'closed_for'}$$",
                  "value": "$${j}$$"
                }
              }
            }
          }
        },
        "24": {
          "type": "layout",
          "width": "row",
          "items": {
            "241": {
              "type": "layout",
              "widthx": "12",
              "items": {
                "2411": {
                  "cssClass": "paragraph",
                  "type": "field",
                  "label": "$${i18n_tc 'observations'}$$",
                  "value": "$${k}$$"
                }
              }
            }
          }
        }
      }
    }
  }
}