{
  "_id": "record::O.crm.discounts.index",
  "type": "layout",
  "widthx": 12,
  "id": "root",
  "items": {
    "1": {
      "type": "layout",
      "widthx": "8",
      "items": {
        "11": {
          "type": "paragraph",
          "text": "$${b.b}$$"
        }
      }
    },
    "2": {
      "type": "layout",
      "widthx": "2",
      "items": {
        "21": {
          "type": "paragraph",
          "text": "$${i | number '2'}$$ $${z}$$"
        }
      }
    },
    "4": {
      "type": "layout",
      "widthx": "2",
      "items": {
        "41": {
          "type": "paragraph",
          "text": "$${g}$$ $${h.a}$$"
        }
      }
    }
  }
}