{
  "_id": "record::AY",
  "_rev": "31-752b714e92683ed04e5f010088206581",
  "width": 12,
  "cssClass": "client",
  "type": "layout",
  "items": {
    "1": {
      "type": "clip",
      "value": "$${m.b}$$",
      "color": "$${m.d}$$"
    },
    "2": {
      "type": "layout",
      "widthx": "12",
      "items": {
        "21": {
          "type": "layout",
          "width": "row",
          "items": {
            "311": {
              "type": "layout",
              "widthx": "12",
              "items": {
                "3111": {
                  "type": "title-medium",
                  "cssClass": "pls",
                  "title": "  $${x}$$"
                }
              }
            }
          }
        },
        "22": {
          "type": "layout",
          "width": "row",
          "items": {
            "221": {
              "type": "layout",
              "widthx": "6",
              "items": {
                "2211": {
                  "type": "field",
                  "label": "$${i18n_tc 'opportunity'}$$",
                  "value": "$${b.b}$$ $${c}$$"
                },
                "2212": {
                  "type": "field",
                  "label": "$${i18n_tc 'probability'}$$",
                  "value": "$${p}$$ % $${i18n_t 'éxito'}$$"
                },
                "2213": {
                  "type": "field",
                  "label": "$${i18n_tc 'origen'}$$",
                  "value": "$${q}$$"
                }
              }
            },
            "222": {
              "type": "layout",
              "widthx": "6",
              "items": {
                "2221": {
                  "type": "field",
                  "label": "$${i18n_tc 'close_preview'}$$",
                  "value": "$${r}$$",
                  "cssClass": "alignRight"
                },
                "2222": {
                  "type": "field",
                  "label": "$${i18n_tc 'potentiality'}$$",
                  "cssClass": "alignRight",
                  "value": "$${i}$$ $${k.a}$$ "
                }
              }
            }
          }
        },
        "23": {
          "type": "layout",
          "width": "row",
          "items": {
            "231": {
              "type": "layout",
              "widthx": "12",
              "items": {
                "2311": {
                  "cssClass": "paragraph",
                  "type": "field",
                  "label": "$${i18n_tc 'observations'}$$",
                  "value": "$${aa}$$"
                }
              }
            }
          }
        }
      }
    }
  }
}