{
  "_id": "record::AD",
  "_rev": "3-ee46eb4359b459ae26cfc00e4f000240",
  "width": 12,
  "type": "layout",
  "items": {
    "col1": {
      "type": "layout",
      "widthx": "9",
      "items": {
        "name": {
          "type": "title-small",
          "title": "$${a.a}$$"
        }
      }
    },
    "col2": {
      "type": "layout",
      "widthx": "3",
      "items": {
        "name": {
          "type": "title-small",
          "title": "$${c}$$"
        }
      }
    }
  }
}