{
  "_id": "record::n.sat.technician_visits.index",
  "type": "layout",
  "creation_date": "2016-02-17T15:19:40.010Z",
  "creation_user": "user::rag",
  "width": 12,
  "cssClass": "borderLight",
  "id": "root",
  "items": {
    "1": {
      "type": "layout",
      "widthx": "3",
      "items": {
        "11": {
          "type": "avatar",
          "data_context": "k",
          "avatar_column": "v"
        }
      }
    },
    "2": {
      "type": "layout",
      "widthx": "9",
      "items": {
        "21": {
          "type": "layout",
          "width": "row",
          "items": {
            "211": {
              "type": "layout",
              "widthx": 12,
              "items": {
                "2111": {
                  "type": "title-medium",
                  "title": "$${z}$$"
                }
              }
            },
            "212": {
              "type": "layout",
              "widthx": "3",
              "items": {
                "2121": {
                  "type": "field",
                  "label": "$${i18n_tc 'date'}$$",
                  "cssClass": "alignLeft",
                  "value": "$${d}$$"
                }
              }
            },
            "213": {
              "type": "layout",
              "widthx": "9",
              "items": {
                "2131": {
                  "type": "field",
                  "cssClass": "alignRight",
                  "value": "$${a.b}$$"
                }
              }
            }
          }
        },
        "23": {
          "type": "layout",
          "width": "row",
          "items": {
            "231": {
              "type": "layout",
              "widthx": "12",
              "items": {
                "2111": {
                  "type": "paragraph",
                  "text": "$${f}$$",
                  "cssClass": "big"
                }
              }
            }
          }
        }
      }
    }
  }
}