{
  "_id": "record::C.sat.articles.index",
  "width": 12,
  "type": "layout",
  "creation_date": "2017-02-06T12:14:02.702Z",
  "creation_user": "user::rag",
  "items": {
    "1": {
      "type": "layout",
      "widthx": "3",
      "items": {
        "name": {
          "type": "avatar",
          "avatar_type": "rectangle",
          "avatar_column": "i"
        }
      }
    },
    "2": {
      "type": "layout",
      "widthx": "9",
      "items": {
        "21": {
          "type": "layout",
          "width": "row",
          "items": {
            "211": {
              "type": "layout",
              "widthx": "12",
              "items": {
                "211": {
                  "type": "title-medium",
                  "title": "$${a}$$"
                }
              }
            }
          }
        },
        "22": {
          "type": "layout",
          "width": "row",
          "items": {
            "221": {
              "type": "layout",
              "widthx": "12",
              "items": {
                "2211": {
                  "type": "paragraph",
                  "cssClass": "text-limited",
                  "text": "$${description}$$"
                }
              }
            }
          }
        }
      }
    }
  }
}