{
  "_id": "record::D",
  "width": 12,
  "type": "layout",
  "id": "root",
  "items": {
    "0": {
      "type": "layout",
      "width": "row",
      "items": {
        "1": {
          "type": "layout",
          "widthx": "12",
          "items": {
            "11": {
              "type": "paragraph",
              "cssClass": "mbn",
              "text": "$${b}$$ - $${c}$$"
            }
          }
        },
        "2": {
          "type": "layout",
          "widthx": "12",
          "items": {
            "21": {
              "type": "paragraph",
              "cssClass": "mtn light-text alignRight",
              "text": "$${a.b}$$"
            }
          }
        }
      }
    }
  }
}