{
  "_id": "table::outstanding_balances",
  "_rev": "7-079d6cae5db54cb29d7be11bb1dc89ff",
  "alias": "AP",
  "name": "outstanding_balances",
  "default_record_description": "",
  "type": "table",
  "indexes": {
    "company_customer_duedate_serie_num": [
      "l",
      "m",
      "b",
      "j",
      "k"
    ]
  },
  "indexes_types": {
    "company_customer_duedate_serie_num": [
      "id",
      "id",
      "date",
      "string",
      "number"
    ]
  }
}