{
  "_id": "table::non_conformances",
  "_rev": "5-aecd8de41ff526e7ddf41e12a1a8ddfb",
  "alias": "BD",
  "name": "non_conformances",
  "default_record_description": "",
  "type": "table",
  "indexes": {
    "customer_id_number": [
      "d",
      "b"
    ],
    "customer_id_inactive_number": [
      "d",
      "i",
      "b"
    ]
  },
  "indexes_types": {
    "customer_id_number": [
      "id",
      "number"
    ],
    "customer_id_inactive_number": [
      "id",
      "string",
      "number"
    ]
  }
}