{
  "_id": "table::company_groups",
  "_rev": "2-94e8d708d387e4636fa619af706394ef",
  "type": "table",
  "alias": "F",
  "name": "company_groups",
  "default_record_description": "$${a}$$",
  "description":{
    "es": "Empresas-Grupos.",
    "en": "Companies-Groups."
  }
}