{
  "_id": "table::provinces",
  "type": "table",
  "alias": "c",
  "name": "provinces",
  "default_record_description": "$${b}$$",
  "default_filters": {
    "1_order": {
      "column": "b"
    }
  }
}