{
  "_id": "table::order_types",
  "_rev": "2-aa8049b63ca5679e27c96fdffc40a76c",
  "alias": "W",
  "name": "order_types",
  "default_record_description": "$${c}$$",
  "type": "table",
  "default_filters": {
    "company_group": {
      "column": "a",
      "value": "{{&company_group_id}}"
    },
    "order": {
      "column": "c"
    }
  }
}