{
  "_id": "table::tax_identifications",
  "_rev": "3-1bee5544fde7bfd1623e986688bf7c3c",
  "alias": "l",
  "name": "tax_identifications",
  "default_record_description": "$${b}$$",
  "type": "table",
  "default_filters": {
    "order": {
      "column": "b"
    }
  },
  "indexes": {
    "permlevel_b": [
      "$pl",
      "b"
    ]
  },
  "indexes_types": {
    "permlevel_b": [
      "permission_level",
      "string"
    ]
  },
  "description":{
    "es": "Razon Social.",
    "en": "Tax identifications."
  }
}