{
  "_id": "table::order_lines",
  "_rev": "28-40815997396d8027ba6b041ad0b34ff1",
  "alias": "V",
  "name": "order_lines",
  "default_record_description": "$${a.b.b}$$/$${a.c}$$ - $${b}$$",
  "type": "table",
  "indexes": {
    "company_inactiveyn_article_ordtype_ordnumber_forecasted": [
      "w",
      "m",
      "u",
      "v",
      "y",
      "n"
    ],
    "customer_company_inactiveyn_article_ordtype_ordnumber_forecasted": [
      "x",
      "w",
      "m",
      "u",
      "v",
      "y",
      "n"
    ],
    "permlevel_company_inactiveyn_article_ordtype_ordnumber_forecasted": [
      "$pl",
      "w",
      "m",
      "u",
      "v",
      "y",
      "n"
    ],
    "permlevel_customer_company_inactiveyn_article_ordtype_ordnumber_forecasted": [
      "$pl",
      "x",
      "w",
      "m",
      "u",
      "v",
      "y",
      "n"
    ],
    "oheader_number": [
      "a",
      "b"
    ],
    "company_article_ordtype_ordnumber_forecasted": [
      "w",
      "u",
      "v",
      "y",
      "n"
    ],
    "customer_company_article_ordtype_ordnumber_forecasted": [
      "x",
      "w",
      "u",
      "v",
      "y",
      "n"
    ],
    "permlevel_customer_company_article_ordtype_ordnumber_forecasted": [
      "$pl",
      "x",
      "w",
      "u",
      "v",
      "y",
      "n"
    ],
    "permlevel_oheader_number": [
      "$pl",
      "a",
      "b"
    ]
  },
  "indexes_types": {
    "permlevel_company_inactiveyn_article_ordtype_ordnumber_forecasted": [
      "permission_level",
      "id",
      "string",
      "string",
      "string",
      "number",
      "date"
    ],
    "permlevel_customer_company_inactiveyn_article_ordtype_ordnumber_forecasted": [
      "permission_level",
      "id",
      "id",
      "string",
      "string",
      "string",
      "number",
      "date"
    ],
    "oheader_number": [
      "id",
      "number"
    ],
    "company_article_ordtype_ordnumber_forecasted": [
      "id",
      "string",
      "string",
      "number",
      "date"
    ],
    "customer_company_article_ordtype_ordnumber_forecasted": [
      "id",
      "id",
      "string",
      "string",
      "number",
      "date"
    ],
    "permlevel_customer_company_article_ordtype_ordnumber_forecasted": [
      "permission_level",
      "id",
      "id",
      "string",
      "string",
      "number",
      "date"
    ],
    "company_inactiveyn_article_ordtype_ordnumber_forecasted": [
      "id",
      "string",
      "string",
      "string",
      "number",
      "date"
    ],
    "customer_company_inactiveyn_article_ordtype_ordnumber_forecasted": [
      "id",
      "id",
      "string",
      "string",
      "string",
      "number",
      "date"
    ],
    "permlevel_oheader_number": [
      "permission_level",
      "id",
      "number"
    ]
  }
}