{
  "_id": "table::warehouse_names",
  "alias": "q",
  "name": "warehouse_names",
  "type": "table",
  "default_record_description": "$${a}$$ - $${b}$$",
  "default_filters": {
    "order": {
      "column": "b"
    },
    "company": {
      "column": "c",
      "value": "{{&company_id}}"
    }
  }
}