{
  "_id": "table::technician_geolocations",
  "type": "table",
  "alias": "BZ",
  "name": "technician_geolocations",
  "creation_date": "2016-03-07T08:53:21.777Z",
  "creation_user": "user::rag",
  "indexes_types": {
    "technician_date": [
      "id",
      "date"
    ]
  },
  "indexes": {
    "technician_date": [
      "c",
      "e"
    ]
  }
}