{
  "_id": "table::quote_lines",
  "_rev": "29-f466ad163e66c74594deb7ab9990787f",
  "alias": "e",
  "name": "quote_lines",
  "default_record_description": "",
  "type": "table",
  "indexes": {
    "company_inactiveyn_articlecod_qtypecod_quotenum_forecasteed": [
      "w",
      "m",
      "t",
      "u",
      "x",
      "n"
    ],
    "customer_company_inactiveyn_articlecod_qtypecod_quotenum_forecasteed": [
      "v",
      "w",
      "m",
      "t",
      "u",
      "x",
      "n"
    ],
    "taxident_company_inactiveyn_articlecod_qtypecod_quotenum_forecasteed": [
      "z",
      "w",
      "m",
      "t",
      "u",
      "x",
      "n"
    ],
    "permlevel_company_inactiveyn_articlecod_qtypecod_quotenum_forecasteed": [
      "$pl",
      "w",
      "m",
      "t",
      "u",
      "x",
      "n"
    ],
    "permlevel_customer_company_inactiveyn_articlecod_qtypecod_quotenum_forecasteed": [
      "$pl",
      "v",
      "w",
      "m",
      "t",
      "u",
      "x",
      "n"
    ],
    "permlevel_taxident_company_inactiveyn_articlecod_qtypecod_quotenum_forecasteed": [
      "$pl",
      "z",
      "w",
      "m",
      "t",
      "u",
      "x",
      "n"
    ],
    "qheader_number": [
      "a",
      "b"
    ],
    "company_articlecod_qtypecod_quotenum_forecasteed": [
      "w",
      "t",
      "u",
      "x",
      "n"
    ],
    "taxident_company_articlecod_qtypecod_quotenum_forecasteed": [
      "z",
      "w",
      "t",
      "u",
      "x",
      "n"
    ],
    "permlevel_taxident_company_articlecod_qtypecod_quotenum_forecasteed": [
      "$pl",
      "z",
      "w",
      "t",
      "u",
      "x",
      "n"
    ],
    "permlevel_qheader_number": [
      "$pl",
      "a",
      "b"
    ]
  },
  "indexes_types": {
    "permlevel_company_inactiveyn_articlecod_qtypecod_quotenum_forecasteed": [
      "permission_level",
      "id",
      "string",
      "string",
      "string",
      "number",
      "date"
    ],
    "permlevel_customer_company_inactiveyn_articlecod_qtypecod_quotenum_forecasteed": [
      "permission_level",
      "id",
      "id",
      "string",
      "string",
      "string",
      "number",
      "date"
    ],
    "permlevel_taxident_company_inactiveyn_articlecod_qtypecod_quotenum_forecasteed": [
      "permission_level",
      "id",
      "id",
      "string",
      "string",
      "string",
      "number",
      "date"
    ],
    "qheader_number": [
      "id",
      "number"
    ],
    "company_articlecod_qtypecod_quotenum_forecasteed": [
      "id",
      "string",
      "string",
      "number",
      "date"
    ],
    "taxident_company_articlecod_qtypecod_quotenum_forecasteed": [
      "id",
      "id",
      "string",
      "string",
      "number",
      "date"
    ],
    "permlevel_taxident_company_articlecod_qtypecod_quotenum_forecasteed": [
      "permission_level",
      "id",
      "id",
      "string",
      "string",
      "number",
      "date"
    ],
    "company_inactiveyn_articlecod_qtypecod_quotenum_forecasteed": [
      "id",
      "string",
      "string",
      "string",
      "number",
      "date"
    ],
    "customer_company_inactiveyn_articlecod_qtypecod_quotenum_forecasteed": [
      "id",
      "id",
      "string",
      "string",
      "string",
      "number",
      "date"
    ],
    "taxident_company_inactiveyn_articlecod_qtypecod_quotenum_forecasteed": [
      "id",
      "id",
      "string",
      "string",
      "string",
      "number",
      "date"
    ],
    "permlevel_qheader_number": [
      "permission_level",
      "id",
      "number"
    ]
  }
}