{
  "_id": "datagroup::sat.surveys_results_by_customer.show",
  "type": "datagroup",
  "creation_date": "2017-01-10T10:39:42.780Z",
  "creation_user": "user::ihud",
  "b1": {
    "type": "BX",
    "filters": {
      "1_survey_type": {
        "column": "a",
        "value": "{{id}}"
      },
      "2_customer": {
        "column": "b",
        "value": "{{customer_id}}"
      },
      "3_order": {
        "column": "d",
        "descending": true
      }
    }
  }
}