{
  "_id": "datagroup::sat.technicians_calendar.show",
  "type": "datagroup",
  "creation_date": "2016-02-22T16:09:07.857Z",
  "creation_user": "user::rag",
  "b1": {
    "type": "AS",
    "filters": {
      "0_date": {
        "column": "c"
      },
      "1_user_id": {
        "column": "g_b",
        "value": "{{user_id}}"
      },
      "2_no_anuladas": {
        "column": "d",
        "startkey": 0.1
      }
    }
  },
  "b_technician": {
    "type": "BW",
    "id": "{{id}}",
    "single_record": true
  },
  "filters": {}
}