{
  "_id": "datagroup::crm.rate_price_by_customer.index",
  "_rev": "20-c93fc68f151f619f9f35118e1cfc6344",
  "b1": {
    "type": "v",
    "filters": {
      "0_active": {
        "column": "f",
        "value": "S",
        "read_only": true
      },
      "1_by_company": {
        "docType": "AI",
        "column": "b",
        "value": "{{&company_id}}",
        "read_only": true
      },
      "2_by_tariff_type_id": {
        "column": "c",
        "value": "{{tariff_type}}"
      },
      "3_order": {
        "column": "e"
      }
    }
  },
  "b2": {
    "type": "M",
    "id": "{{customer_id}}",
    "single_record": true
  },
  "filters": {},
  "type": "datagroup"
}
