{
  "_id": "datagroup::crm.user_message_action_by_customer.edit",
  "_rev": "4-a5d8e4291d7665677625bf43780e2aa4",
  "b1": {
    "type": "n",
    "id": "{{id}}",
    "attributes": {
      "b": "{{&user_id}}",
      "d": "{{@now}}",
      "e": "N",
      "h": "{{@now}}",
      "j": "{{tax_identification_id}}",
      "k": "{{customer_id}}"
    },
    "single_record": true,
    "filters": {}
  },
  "filters": {},
  "type": "datagroup"
}