{
  "_id": "datagroup::crm.minutes_by_order.edit",
  "type": "datagroup",
  "creation_date": "2016-06-16T15:10:56.631Z",
  "creation_user": "user::rag",
  "b1": {
    "type": "n",
    "id": "{{id}}",
    "single_record": true,
    "attributes": {
      "b": "{{&user_id}}",
      "c": "{{&user_id}}",
      "d": "{{@now}}",
      "e": "N",
      "ac": "{{order_header_id}}",
      "l": "Y",
      "k": "{{customer_id}}"
    },
    "filters": {
      "1_minute_yn": {
        "column": "c",
        "value": "Y",
        "docType": "S"
      },
      "2_order": {
        "docType": "S",
        "column": "b"
      }
    }
  },
  "filters": {}
}