{
  "_id": "datagroup::crm.agents.show",
  "_rev": "14-a48733bfa5d50829edea6c5aa388209e",
  "b_agent": {
    "type": "A",
    "id": "{{id}}",
    "single_record": true
  },
  "filters": {},
  "type": "datagroup"
}