{
  "_id": "datagroup::sat.minutes_without_tabs.show",
  "type": "datagroup",
  "creation_date": "2016-07-18T09:47:57.308Z",
  "creation_user": "user::iaa",
  "b1": {
    "type": "n",
    "id": "{{id}}",
    "single_record": true
  },
  "filters": {}
}