{
  "_id": "datagroup::crm.quote_headers.show",
  "type": "datagroup",
  "b1": {
    "type": "d",
    "id": "{{id}}",
    "single_record": true,
    "filters": {
      "1_order": {
        "docType": "e",
        "column": "b"
      }
    }
  },
  "filters": {}
}