{
  "_id": "datagroup::crm.meetings_by_user_customer.index",
  "type": "datagroup",
  "b1": {
    "type": "AS",
    "filters": {
      "0_date": {
        "column": "c"
      },
      "1_user_id": {
        "column": "g_b",
        "value": "{{&user_id}}"
      },
      "2_no_anuladas": {
        "column": "d",
        "startkey": 0.1
      }
    }
  },
  "filters": {}
}