{
  "_id": "datagroup::sat.technicians_map.show",
  "type": "datagroup",
  "b1": {
    "type": "BZ",
    "filters": {
      "2_order": {
        "column": "e",
        "descending": true
      },
      "1_by_technician": {
        "column": "c",
        "value": "{{id}}"
      }
    }
  }
}