{
  "_id": "datagroup::crm.articles.index",
  "_rev": "34-4a82329fbad62da2cb3d8383bfacb40f",
  "b1": {
    "type": "C",
    "filters": {
      "1_by_company": {
        "column": "j",
        "value": "{{&company_id}}",
        "read_only": true
      },
      "2_article_company": {
        "docType": "AI",
        "column": "b",
        "value": "{{&company_id}}",
        "discardParent": false,
        "read_only": true
      },
      "3_by_tariff": {
        "docType": "v",
        "column": "c",
        "value": "{{&company_default_tariff_type_id}}",
        "discardParent": false,
        "read_only": true
      },
      "4_activeyn": {
        "column": "h",
        "value": "S"
      },
      "5_order": {
        "column": "a"
      }
    }
  },
  "filters": {},
  "type": "datagroup"
}