{
  "_id": "datagroup::crm.competitors_enquiry.show",
  "type": "datagroup",
  "b1": {
    "type": "BH",
    "filters": {
      "1_article_property_type": {
        "column": "b",
        "value": "{{%property_value_id}}",
        "single_record": true
      },
      "2_order": {
        "column": "d"
      },
      "3_order_competitor": {
        "column": "c"
      }
    }
  }
}