{
  "_id": "datagroup::sat.observations_by_customer.index",
  "b1": {
    "type": "AJ",
    "filters": {
      "1_customer": {
        "column": "a",
        "value": "{{customer_id}}",
        "read_only": true
      },
      "2_order": {
        "column": "b"
      }
    }
  },
  "filters": {},
  "type": "datagroup"
}