{
  "_id": "datagroup::sat.tasks_by_customer.index",
  "type": "datagroup",
  "filters": {},
  "b1": {
    "type": "BM",
    "filters": {
      "5_order_number": {
        "column": "d",
        "descending": false
      },
      "4_order_worknumber": {
        "column": "f",
        "descending": false
      },
      "3_order_wtcode": {
        "column": "e",
        "descending": false
      },
      "2_customer": {
        "column": "g",
        "value": "{{customer_id}}",
        "read_only": true
      },
      "1_inactive_yn": {
        "column": "c",
        "value": "N",
        "read_only": false
      }
    }
  }
}