{
  "_id": "datagroup::crm.actions_by_customer.index",
  "type": "datagroup",
  "creation_date": "2016-10-20T10:04:15.821Z",
  "creation_user": "user::ihud",
  "b1": {
    "type": "CE",
    "filters": {
      "3_order": {
        "column": "e"
      },
      "2_order": {
        "column": "j"
      },
      "1_forecasted_date": {
        "column": "i",
        "descending": true
      },
      "0_customer_id": {
        "column": "c",
        "value": "{{customer_id}}"
      }
    }
  },
  "filters": {}
}