{
  "_id": "datagroup::crm.competing_products.new",
  "_rev": "6-2df12ed4d1df32535813c210b5982d67",
  "b1": {
    "type": "BG",
    "id": "{{id}}",
    "attributes": {
      "a": "{{competitor_id}}"
    },
    "single_record": true
  },
  "filters": {},
  "type": "datagroup"
}