{
  "_id": "datagroup::crm.user_messages.show",
  "_rev": "5-674d16b37daa1196f26b46db82d38324",
  "b1": {
    "type": "n",
    "id": "{{id}}",
    "single_record": true
  },
  "filters": {},
  "type": "datagroup"
}