{
  "_id": "datagroup::crm.contacts.index",
  "_rev": "13-1bec021e916aad172b83cce3af5c8e01",
  "b1": {
    "type": "H",
    "filters": {
      "1_order": {
        "column": "e"
      }
    }
  },
  "filters": {},
  "type": "datagroup"
}