{
  "_id": "datagroup::crm.surveys_by_customer.new",
  "type": "datagroup",
  "creation_date": "2016-03-02T15:44:15.320Z",
  "creation_user": "user::iaa",
  "b1": {
    "type": "BX",
    "id": "{{id}}",
    "single_record": true,
    "useMandatories": [
      "a",
      "d"
    ],
    "attributes": {
      "b": "{{customer_id}}",
      "c": "M",
      "d": "{{@now}}"
    }
  },
  "filters": {}
}