{
  "_id": "datagroup::sat.customer_contacts.new",
  "type": "datagroup",
  "filters": {},
  "b1": {
    "type": "H",
    "id": "{{id}}",
    "single_record": true,
    "attributes": {
      "a": "{{tax_identification_id}}",
      "b": "{{customer_id}}"
    }
  }
}