{
  "_id": "datagroup::crm.risk_by_customer.show",
  "_rev": "5-9e842cfc091c024f951ec6ac472d4f94",
  "b1": {
    "type": "M",
    "id": "{{customer_id}}",
    "single_record": true,
    "filters": {
      "1_company_id": {
        "docType": "AO",
        "column": "b",
        "value": "{{&company_id}}"
      },
      "2_customer_id": {
        "docType": "AO",
        "column": "a",
        "value": "{{customer_id}}"
      }
    }
  },
  "filters": {},
  "type": "datagroup"
}