{
  "_id": "datagroup::crm.customer_properties.show",
  "_rev": "4-90f0994a58ff49006145a71aed962f4f",
  "b1": {
    "type": "L",
    "filters": {
      "1_customer": {
        "column": "a",
        "value": "{{customer_id}}",
        "read_only": true
      },
      "2_order": {
        "column": "b"
      }
    }
  },
  "filters": {},
  "type": "datagroup"
}