{
  "_id": "datagroup::crm.actions_by_customer.edit",
  "type": "datagroup",
  "creation_date": "2016-10-20T10:41:49.866Z",
  "creation_user": "user::ihud",
  "filters": {},
  "b1": {
    "type": "CE",
    "id": "{{id}}",
    "single_record": true,
    "filters": {}
  }
}