{
  "_id": "datagroup::sat.surveys_by_customer.index",
  "type": "datagroup",
  "creation_date": "2017-01-10T10:22:16.202Z",
  "creation_user": "user::ihud",
  "b1": {
    "type": "BX",
    "filters": {
      "3_order": {
        "column": "d",
        "descending": true
      },
      "1_associated_id": {
        "column": "b",
        "value": "{{customer_id}}",
        "read_only": true
      },
      "2_associated_id_type": {
        "column": "c",
        "value": "M",
        "read_only": true
      }
    }
  }
}