{
  "_id": "datagroup::admin.surveys_results.show",
  "type": "datagroup",
  "creation_date": "2016-03-30T14:30:20.918Z",
  "creation_user": "user::ihud",
  "b1": {
    "type": "BX",
    "filters": {
      "2_order": {
        "column": "d",
        "descending": true
      },
      "1_survey_type": {
        "column": "a",
        "value": "{{id}}",
        "read_only": true
      }
    }
  }
}