{
  "_id": "datagroup::admin.survey_types.edit",
  "type": "datagroup",
  "creation_date": "2016-02-12T12:29:42.964Z",
  "creation_user": "user::iaa",
  "filters": {},
  "b1": {
    "type": "BU",
    "id": "{{id}}",
    "single_record": true,
    "filters": {
      "0_minute_Y": {
        "value": "Y",
        "column": "c",
        "docType": "S",
        "discardParent": false
      },
      "1_order_minute": {
        "column": "b",
        "docType": "S",
        "discardParent": false
      }
    },
    "attributes": {
      "c": "N"
    }
  }
}