{
  "_id": "datagroup::crm.surveys_results_by_customer.index",
  "type": "datagroup",
  "creation_date": "2016-04-11T07:32:17.827Z",
  "creation_user": "user::ihud",
  "filters": {},
  "b1": {
    "type": "BU",
    "filters": {
      "2_order": {
        "column": "b"
      },
      "1_active": {
        "column": "c",
        "value": "N"
      }
    }
  }
}