{
  "_id": "datagroup::crm.articles_general.show",
  "type": "datagroup",
  "filters": {},
  "b1": {
    "type": "C",
    "id": "{{article_id}}",
    "single_record": true,
    "filters": {
      "4_language": {
        "docType": "Q",
        "column": "c",
        "value": "{{&language_id}}"
      },
      "3_by_activetariff": {
        "docType": "v",
        "column": "f",
        "value": "S",
        "discardParent": false
      },
      "2_by_tariff": {
        "docType": "v",
        "column": "c",
        "value": "{{&company_default_tariff_type_id}}",
        "discardParent": false
      },
      "1_by_company": {
        "docType": "AI",
        "column": "b",
        "value": "{{&company_id}}",
        "discardParent": false
      }
    }
  }
}