{
  "_id": "datagroup::now.meetings_by_user.index",
  "type": "datagroup",
  "filters": {},
  "b1": {
    "type": "AS",
    "filters": {
      "3_order": {
        "column": "c",
        "descending": false
      },
      "2_1_no_anuladas": {
        "column": "d",
        "startkey": "0.1"
      },
      "2_user_id": {
        "column": "g_b",
        "value": "{{&user_id}}"
      },
      "1_date": {
        "column": "c",
        "startkey": "{{@now}}"
      }
    }
  }
}